5
10
10
10
10
10
10
10
10
15
15
5
5
10
10
10
15
20
25
25
20
20
20
20
10
5
10
10
10
25
15
10
20
10
15
10
10
20
20
20
5
10
10
10
10
10
10
15
10
15
15
15
15
25
15
15
40
25
20
30
30
30
10
10
15
15
20
25
5
5
5
5
5
5
5
5
5
5
5
5
5
5
5
10
10
10
10
20
20
20
30
20
40
30
50
25
25
30
50
65
75
30
30
40